<?xml version="1.0" encoding="UTF-8"?>
<CustomTab xmlns="http://soap.sforce.com/2006/04/metadata">
    <label>Fallout Orders</label>
    <mobileReady>false</mobileReady>
    <motif>Custom45: Ticket</motif>
    <page>FalloutOrders_v3</page>
</CustomTab>
