"Trans","Trans Ver","IIS Number","ISS Date","Printed By","Source Dir #","Source Dir Version","To","From","Dir #","Dir Ver","State","Dir Name","Pub Date","Life","CMR #","Clinet #","NAT","Client Name","NAT Client ID","PG#","Line #","UDAC","BAS","SPINS","Gross Amnt","Code","ADJ Amnt","Advertising Data" 
"I","V0001","092056781300236909","2013-09-20 00:00:00","Pubco 3","032663","Armstrong-Rising Sun, MD 1311","P","C","032663","Armstrong-Rising Sun, MD 1311","MD","Armstrong-Rising Sun, MD","2013-11-01 00:00:00","12","5678","8765","New","Northwest Airlines","null","","425","TBLN","","","450","","0","ROMULUS TERMINAL"
"I","V0001","092056781300236909","2013-09-20 00:00:00","Pubco 3","032663","Armstrong-Rising Sun, MD 1311","P","C","032663","null","MD","Armstrong-Rising Sun, MD","null","12","5678","8765","New","Northwest Airlines","null","","590","","","","0","","0","7892 AIRPORT WAY"
"I","V0001","092056781300236909","2013-09-20 00:00:00","Pubco 3","032663","Armstrong-Rising Sun, MD 1311","P","C","032663","null","MD","Armstrong-Rising Sun, MD","null","12","5678","8765","New","Northwest Airlines","null","","600","","","","0","","0","810 234-5600"
"I","V0001","092056781300236909","2013-09-20 00:00:00","Pubco 3","032663","Armstrong-Rising Sun, MD 1311","P","C","032663","Armstrong-Rising Sun, MD 1311","MD","Armstrong-Rising Sun, MD","2013-11-01 00:00:00","12","5678","8765","New","Northwest Airlines","null","","125","TM","","","350","","0","MIDDLEBELT TERMINAL"
"I","V0001","092056781300236909","2013-09-20 00:00:00","Pubco 3","032663","Armstrong-Rising Sun, MD 1311","P","C","032663","null","MD","Armstrong-Rising Sun, MD","null","12","5678","8765","New","Northwest Airlines","null","","400","","","","0","","0","732 456-7800"
"I","V0001","092056781300236909","2013-09-20 00:00:00","Pubco 3","032663","Armstrong-Rising Sun, MD 1311","P","C","032663","null","MD","Armstrong-Rising Sun, MD","null","12","5678","8765","New","Northwest Airlines","null","","200","","","","0","","0","3400 MIDDLEBELT RD"
"I","V0001","092056781300236909","2013-09-20 00:00:00","Pubco 3","032663","Armstrong-Rising Sun, MD 1311","P","C","032663","Armstrong-Rising Sun, MD 1311","MD","Armstrong-Rising Sun, MD","2013-11-01 00:00:00","12","5678","8765","New","Northwest Airlines","null","","300","TBLN","","","400","","0","MERRIMAN TERMINAL"
"I","V0001","092056781300236909","2013-09-20 00:00:00","Pubco 3","032663","Armstrong-Rising Sun, MD 1311","P","C","032663","null","MD","Armstrong-Rising Sun, MD","null","12","5678","8765","New","Northwest Airlines","null","","450","","","","0","","0","671 MERRIMAN"
"I","V0001","092056781300236909","2013-09-20 00:00:00","Pubco 3","032663","Armstrong-Rising Sun, MD 1311","P","C","032663","null","MD","Armstrong-Rising Sun, MD","null","12","5678","8765","New","Northwest Airlines","null","","500","","","","0","","0","810 234-5600"
